<svg width="13" height="13" viewBox="0 0 13 13" version="1.1" xmlns="http://www.w3.org/2000/svg" xmlns:xlink="http://www.w3.org/1999/xlink">
<title>Shape</title>
<desc>Created using Figma</desc>
<g id="Canvas" transform="translate(-4659 19)">
<g id="Shape" opacity="0.25">
<use xlink:href="#path0_fill" transform="translate(4659 -19)"/>
</g>
</g>
<defs>
<path id="path0_fill" fill-rule="evenodd" d="M 0 10L 3 10L 3 13L 0 13L 0 10ZM 5 10L 13 10L 13 13L 5 13L 5 10ZM 0 5L 3 5L 3 8L 0 8L 0 5ZM 5 5L 13 5L 13 8L 5 8L 5 5ZM 0 0L 3 0L 3 3L 0 3L 0 0ZM 5 0L 13 0L 13 3L 5 3L 5 0Z"/>
</defs>
</svg>
